{
	"status": "success",
	"message": {
		"total": 23,
		"per_page": 10,
		"current_page": 1,
		"last_page": 3,
		"data": [
			{
				"order_id": 83,
				"money": "240.0000",
				"bonus": "0.0000",
				"status": "regret",
				"created": "2017-06-19 16:38:08",
				"periods": {
					"date": "20170619",
					"num": "64",
					"lottery_num": "17797",
					"lottery_date": "2017-06-19 16:40:00"
				},
				"product": {
					"name": "\u91cd\u5e86\u65f6\u65f6\u5f69",
					"logo": "\/attached\/image\/2017\/07\/06\/9df61de1dcb7a5542ef8f639f84bb6b2595df154edbb9.png"
				}
			}, {
				"order_id": 81,
				"money": "250.0000",
				"bonus": "0.0000",
				"status": "regret",
				"created": "2017-06-19 16:37:40",
				"periods": {
					"date": "20170619",
					"num": "64",
					"lottery_num": "17797",
					"lottery_date": "2017-06-19 16:40:00"
				},
				"product": {
					"name": "\u91cd\u5e86\u65f6\u65f6\u5f69",
					"logo": "\/attached\/image\/2017\/07\/06\/9df61de1dcb7a5542ef8f639f84bb6b2595df154edbb9.png"
				}
			}, {
				"order_id": 80,
				"money": "250.0000",
				"bonus": "0.0000",
				"status": "regret",
				"created": "2017-06-19 16:37:28",
				"periods": {
					"date": "20170619",
					"num": "64",
					"lottery_num": "17797",
					"lottery_date": "2017-06-19 16:40:00"
				},
				"product": {
					"name": "\u91cd\u5e86\u65f6\u65f6\u5f69",
					"logo": "\/attached\/image\/2017\/07\/06\/9df61de1dcb7a5542ef8f639f84bb6b2595df154edbb9.png"
				}
			}, {
				"order_id": 79,
				"money": "10.0000",
				"bonus": "0.0000",
				"status": "regret",
				"created": "2017-06-19 16:37:09",
				"periods": {
					"date": "20170619",
					"num": "64",
					"lottery_num": "17797",
					"lottery_date": "2017-06-19 16:40:00"
				},
				"product": {
					"name": "\u91cd\u5e86\u65f6\u65f6\u5f69",
					"logo": "\/attached\/image\/2017\/07\/06\/9df61de1dcb7a5542ef8f639f84bb6b2595df154edbb9.png"
				}
			}, {
				"order_id": 78,
				"money": "10.0000",
				"bonus": "0.0000",
				"status": "regret",
				"created": "2017-06-19 16:36:56",
				"periods": {
					"date": "20170619",
					"num": "64",
					"lottery_num": "17797",
					"lottery_date": "2017-06-19 16:40:00"
				},
				"product": {
					"name": "\u91cd\u5e86\u65f6\u65f6\u5f69",
					"logo": "\/attached\/image\/2017\/07\/06\/9df61de1dcb7a5542ef8f639f84bb6b2595df154edbb9.png"
				}
			}, {
				"order_id": 77,
				"money": "250.0000",
				"bonus": "0.0000",
				"status": "regret",
				"created": "2017-06-19 16:35:54",
				"periods": {
					"date": "20170619",
					"num": "64",
					"lottery_num": "17797",
					"lottery_date": "2017-06-19 16:40:00"
				},
				"product": {
					"name": "\u91cd\u5e86\u65f6\u65f6\u5f69",
					"logo": "\/attached\/image\/2017\/07\/06\/9df61de1dcb7a5542ef8f639f84bb6b2595df154edbb9.png"
				}
			}, {
				"order_id": 75,
				"money": "250.0000",
				"bonus": "0.0000",
				"status": "regret",
				"created": "2017-06-19 16:35:21",
				"periods": {
					"date": "20170619",
					"num": "64",
					"lottery_num": "17797",
					"lottery_date": "2017-06-19 16:40:00"
				},
				"product": {
					"name": "\u91cd\u5e86\u65f6\u65f6\u5f69",
					"logo": "\/attached\/image\/2017\/07\/06\/9df61de1dcb7a5542ef8f639f84bb6b2595df154edbb9.png"
				}
			}, {
				"order_id": 73,
				"money": "40.0000",
				"bonus": "0.0000",
				"status": "regret",
				"created": "2017-06-19 16:34:17",
				"periods": {
					"date": "20170619",
					"num": "64",
					"lottery_num": "17797",
					"lottery_date": "2017-06-19 16:40:00"
				},
				"product": {
					"name": "\u91cd\u5e86\u65f6\u65f6\u5f69",
					"logo": "\/attached\/image\/2017\/07\/06\/9df61de1dcb7a5542ef8f639f84bb6b2595df154edbb9.png"
				}
			}, {
				"order_id": 72,
				"money": "60.0000",
				"bonus": "0.0000",
				"status": "regret",
				"created": "2017-06-19 16:34:09",
				"periods": {
					"date": "20170619",
					"num": "64",
					"lottery_num": "17797",
					"lottery_date": "2017-06-19 16:40:00"
				},
				"product": {
					"name": "\u91cd\u5e86\u65f6\u65f6\u5f69",
					"logo": "\/attached\/image\/2017\/07\/06\/9df61de1dcb7a5542ef8f639f84bb6b2595df154edbb9.png"
				}
			}, {
				"order_id": 70,
				"money": "250.0000",
				"bonus": "0.0000",
				"status": "regret",
				"created": "2017-06-19 16:32:47",
				"periods": {
					"date": "20170619",
					"num": "64",
					"lottery_num": "17797",
					"lottery_date": "2017-06-19 16:40:00"
				},
				"product": {
					"name": "\u91cd\u5e86\u65f6\u65f6\u5f69",
					"logo": "\/attached\/image\/2017\/07\/06\/9df61de1dcb7a5542ef8f639f84bb6b2595df154edbb9.png"
				}
			}
		]
	}
}
